^G:\REPOSITORIES\REP1\MY-LABAS\BUILD\CMAKEFILES\3.22.1\COMPILERIDC\CMAKECCOMPILERID.C
C:\WINDOWS\GLOBALIZATION\SORTING\SORTDEFAULT.NLS
C:\PROGRAM FILES (X86)\MICROSOFT VISUAL STUDIO\2019\COMMUNITY\VC\TOOLS\MSVC\14.29.30133\BIN\HOSTX64\X64\1049\CLUI.DLL
C:\WINDOWS\SYSTEM32\TZRES.DLL
